…
### 1. Calculate the total number of steps taken per day

```r
library(dplyr)
```

```r
# Load the data into an object named "day.activity" & calculate the total number of steps taken per day (column total.by.day)
day.activity <- activity %>% group_by(date) %>% summarise(total.by.day = sum(steps),mean.by.day = mean(steps))
print(day.activity)
```

```
## # A tibble: 61 × 3
##    date       total.by.day mean.by.day
##    <chr>             <int>       <dbl>
##  1 2012-10-01           NA      NA    
##  2 2012-10-02          126       0.438
##  3 2012-10-03        11352      39.4  
##  4 2012-10-04        12116      42.1  
##  5 2012-10-05        13294      46.2  
##  6 2012-10-06        15420      53.5  
##  7 2012-10-07        11015      38.2  
##  8 2012-10-08           NA      NA    
##  9 2012-10-09        12811      44.5  
## 10 2012-10-10         9900      34.4  
## # ℹ 51 more rows
```
…
